[gd_scene load_steps=4 format=2]

[ext_resource path="res://Scripts/Barrier.gd" type="Script" id=1]
[ext_resource path="res://Scenes/Wall.tscn" type="PackedScene" id=2]

[sub_resource type="RectangleShape2D" id=1]
extents = Vector2( 8.01624, 464.199 )

[node name="Barrier" type="Node"]
script = ExtResource( 1 )

[node name="Bottom" parent="." instance=ExtResource( 2 )]

[node name="Top" parent="." instance=ExtResource( 2 )]
position = Vector2( 196.116, 4.78333 )
rotation = 3.14159

[node name="Gate" type="Area2D" parent="."]

[node name="CollisionShape2D" type="CollisionShape2D" parent="Gate"]
position = Vector2( 0, 231.752 )
shape = SubResource( 1 )
[connection signal="area_entered" from="Gate" to="." method="_on_Gate_area_entered"]
